{
  "project_info": {
    "project_number": "672837400872",
    "firebase_url": "https://redeemi-android.firebaseio.com",
    "project_id": "redeemi-android",
    "storage_bucket": "redeemi-android.appspot.com"
  },
  "client": [
    {
      "client_info": {
        "mobilesdk_app_id": "1:672837400872:android:031ccb03bede08a0",
        "android_client_info": {
          "package_name": "com.imfreemobile.redeemi.android.redeemiandroid"
        }
      },
      "oauth_client": [
        {
          "client_id": "672837400872-el47rc0ltfo0gg35269o0t1ctlbtia0i.apps.googleusercontent.com",
          "client_type": 1,
          "android_info": {
            "package_name": "com.imfreemobile.redeemi.android.redeemiandroid",
            "certificate_hash": "bf5ba0f3ffae01eae44ad19d980452505b14a24a"
          }
        },
        {
          "client_id": "672837400872-r6ki62r6j4t1e6755g9oipp17vb1mvih.apps.googleusercontent.com",
          "client_type": 3
        }
      ],
      "api_key": [
        {
          "current_key": "AIzaSyBiLWovaCfaCcSI8Su5mtK2FuCLJ3-oSII"
        }
      ],
      "services": {
        "analytics_service": {
          "status": 1
        },
        "appinvite_service": {
          "status": 2,
          "other_platform_oauth_client": [
            {
              "client_id": "672837400872-r6ki62r6j4t1e6755g9oipp17vb1mvih.apps.googleusercontent.com",
              "client_type": 3
            }
          ]
        },
        "ads_service": {
          "status": 2
        }
      }
    }
  ],
  "configuration_version": "1"
}